…
select()

Select perticular interested columns from the dataset

# select only the variables carat, color and price
select(diamonds, carat, color, price)

## # A tibble: 53,940 x 3
##    carat color price
##    <dbl> <ord> <int>
##  1  0.23 E       326
##  2  0.21 E       326
##  3  0.23 E       327
##  4  0.29 I       334
##  5  0.31 J       335
##  6  0.24 J       336
##  7  0.24 I       336
##  8  0.26 H       337
##  9  0.22 E       337
## 10  0.23 H       338
## # ... with 53,930 more rows
filter()

filter acts like subsetting the data based on certain conditions

# examine the factors in cut variable
table(diamonds$cut)

## 
##      Fair      Good Very Good   Premium     Ideal 
##      1610      4906     12082     13791     21551

# subsetting or filtering the diamonds dataset where cut==”Premium”
filter(diamonds, cut=="Premium")

## # A tibble: 13,791 x 10
##    carat cut     color clarity depth table price     x     y     z
##    <dbl> <ord>   <ord> <ord>   <dbl> <dbl> <int> <dbl> <dbl> <dbl>
##  1  0.21 Premium E     SI1      59.8    61   326  3.89  3.84  2.31
##  2  0.29 Premium I     VS2      62.4    58   334  4.2   4.23  2.63
##  3  0.22 Premium F     SI1      60.4    61   342  3.88  3.84  2.33
##  4  0.2  Premium E     SI2      60.2    62   345  3.79  3.75  2.27
##  5  0.32 Premium E     I1       60.9    58   345  4.38  4.42  2.68
##  6  0.24 Premium I     VS1      62.5    57   355  3.97  3.94  2.47
##  7  0.29 Premium F     SI1      62.4    58   403  4.24  4.26  2.65
##  8  0.22 Premium E     VS2      61.6    58   404  3.93  3.89  2.41
##  9  0.22 Premium D     VS2      59.3    62   404  3.91  3.88  2.31
## 10  0.3  Premium J     SI2      59.3    61   405  4.43  4.38  2.61
## # ... with 13,781 more rows
…
